,Year,Number of internet users (users)
0,1990,5251856
1,1991,4275348
2,1992,6841825
3,1993,23956605
4,1994,45545092
5,1995,83591635
6,1996,150151480
7,1997,237669473
8,1998,370802009
9,1999,557313801
10,2000,808979859
11,2001,1000096292
12,2002,1320003666
13,2003,1548828752
14,2004,1813210750
15,2005,2051553179
16,2006,2308244209
17,2007,2743745493
18,2008,3115922761
19,2009,3488593742
20,2010,4025781603
21,2011,4427405700
22,2012,4932362757
23,2013,5373084861
24,2014,5902210280
25,2015,6483586146
26,2016,6992760124
27,2017,2035434679
