,Year,Population by country
0,1800,948784816
1,1801,952969354
2,1802,957188652
3,1803,961450077
4,1804,965746378
5,1805,970075767
6,1806,974435944
7,1807,978823346
8,1808,983237625
9,1809,987671330
10,1810,992898741
11,1811,997553034
12,1812,1002346581
13,1813,1007280016
14,1814,1012353749
15,1815,1017568574
16,1816,1022921637
17,1817,1028411528
18,1818,1034038719
19,1819,1039802535
20,1820,1045703708
21,1821,1051619541
22,1822,1057546286
23,1823,1063482746
24,1824,1069425492
25,1825,1075386179
26,1826,1081360219
27,1827,1087348898
28,1828,1093352243
29,1829,1099371831
30,1830,1105408310
31,1831,1111454814
32,1832,1117408515
33,1833,1123264982
34,1834,1129026978
35,1835,1134694563
36,1836,1140261982
37,1837,1145705197
38,1838,1151006953
39,1839,1156182397
40,1840,1161240914
41,1841,1166027080
42,1842,1170680489
43,1843,1175205550
44,1844,1179595372
45,1845,1183860307
46,1846,1187990989
47,1847,1191996330
48,1848,1195878553
49,1849,1199640472
50,1850,1203285858
51,1851,1206937518
52,1852,1210544676
53,1853,1214113325
54,1854,1217648870
55,1855,1221146936
56,1856,1224595015
57,1857,1227999702
58,1858,1231379949
59,1859,1234783394
60,1860,1238155291
61,1861,1241640738
62,1862,1245443614
63,1863,1249564534
64,1864,1254001534
65,1865,1258757119
66,1866,1263839519
67,1867,1269255153
68,1868,1274988670
69,1869,1281042080
70,1870,1287415940
71,1871,1294110353
72,1872,1301051556
73,1873,1307071122
74,1874,1314570815
75,1875,1322360856
76,1876,1330458964
77,1877,1338098232
78,1878,1346959881
79,1879,1356175280
80,1880,1365565220
81,1881,1374791584
82,1882,1384400646
83,1883,1394147453
84,1884,1403721144
85,1885,1413690020
86,1886,1423814571
87,1887,1433771473
88,1888,1444147661
89,1889,1454700376
90,1890,1465434194
91,1891,1476337445
92,1892,1487461881
93,1893,1498823576
94,1894,1510403234
95,1895,1522189029
96,1896,1534204055
97,1897,1546459303
98,1898,1558914405
99,1899,1571622122
100,1900,1584511734
101,1901,1597564014
102,1902,1610535315
103,1903,1623909794
104,1904,1637465608
105,1905,1651230361
106,1906,1665144899
107,1907,1678747924
108,1908,1692938968
109,1909,1707753483
110,1910,1723044430
111,1911,1738452565
112,1912,1755093584
113,1913,1771933359
114,1914,1788317563
115,1915,1803893132
116,1916,1818247536
117,1917,1831834393
118,1918,1843559327
119,1919,1856388976
120,1920,1870361771
121,1921,1886652946
122,1922,1902942890
123,1923,1919674089
124,1924,1936683424
125,1925,1953660401
126,1926,1970500623
127,1927,1987445708
128,1928,2004343406
129,1929,2022215128
130,1930,2041589267
131,1931,2062710988
132,1932,2084552622
133,1933,2106234619
134,1934,2127839015
135,1935,2149281537
136,1936,2171120173
137,1937,2193174777
138,1938,2215834731
139,1939,2237851854
140,1940,2259197842
141,1941,2280070827
142,1942,2301253033
143,1943,2322713475
144,1944,2342661290
145,1945,2363229321
146,1946,2386729611
147,1947,2414860926
148,1948,2445993666
149,1949,2486258657
150,1950,2532392455
151,1951,2579907584
152,1952,2626640793
153,1953,2673247873
154,1954,2720278371
155,1955,2768174803
156,1956,2817269749
157,1957,2867788835
158,1958,2919861974
159,1959,2973540797
160,1960,3028852738
161,1961,3085857493
162,1962,3144697943
163,1963,3205620485
164,1964,3268915305
165,1965,3334737235
166,1966,3403171941
167,1967,3474015314
168,1968,3546757695
169,1969,3620701243
170,1970,3695294130
171,1971,3770430612
172,1972,3846110514
173,1973,3922030192
174,1974,3997863761
175,1975,4073423066
176,1976,4148539094
177,1977,4223364153
178,1978,4298447982
179,1979,4374562430
180,1980,4452292988
181,1981,4531631159
182,1982,4612464295
183,1983,4695120813
184,1984,4779974843
185,1985,4867173256
186,1986,4956924846
187,1987,5048827753
188,1988,5141648276
189,1989,5233725448
190,1990,5323832001
191,1991,5411544865
192,1992,5497084420
193,1993,5580675694
194,1994,5662799270
195,1995,5743854605
196,1996,5823848086
197,1997,5902754779
198,1998,5980942702
199,1999,6058874951
200,2000,6136928607
201,2001,6215250645
202,2002,6293908230
203,2003,6373092196
204,2004,6452984942
205,2005,6533711640
206,2006,6615346046
207,2007,6697869484
208,2008,6781179676
209,2009,6865108849
210,2010,6949495855
211,2011,7034293227
212,2012,7119418605
213,2013,7204623708
214,2014,7289604107
215,2015,7374111755
216,2016,7458016628
217,2017,7541261547
218,2018,7623764439
219,2019,7705467692
