year;Relative height(cm)
1880;"-5,646"
1881;"-7,224"
1882;"-8,479"
1883;"-6,527"
1884;"-6,372"
1885;"-5,625"
1886;"-6,168"
1887;"-6,449"
1888;"-6,129"
1889;"-6,563"
1890;"-6,594"
1891;"-5,292"
1892;"-6,049"
1893;"-5,557"
1894;"-4,825"
1895;"-4,632"
1896;"-4,812"
1897;"-6,293"
1898;"-4,121"
1899;"-3,801"
1900;"-5,116"
1901;"-4,588"
1902;"-4,382"
1903;"-4,246"
1904;"-4,6"
1905;"-4,954"
1906;"-4,339"
1907;"-4,981"
1908;"-4,629"
1909;"-4,325"
1910;"-4,756"
1911;"-3,309"
1912;"-3,601"
1913;"-3,897"
1914;"-1,164"
1915;"-3,589"
1916;"-2,873"
1917;"-3,276"
1918;"-3,361"
1919;"-3,301"
1920;"-3,36"
1921;"-3,669"
1922;"-3,032"
1923;"-3,899"
1924;"-4,285"
1925;"-3,744"
1926;"-3,224"
1927;"-3,69"
1928;"-3,748"
1929;"-3,972"
1930;"-3,071"
1931;"-2,872"
1932;"-2,1"
1933;"-2,6"
1934;"-2,708"
1935;"-2,354"
1936;"-1,868"
1937;"-1,198"
1938;"-1,253"
1939;"-1,142"
1940;"-0,554"
1941;"-0,376"
1942;"-0,21"
1943;"-0,776"
1944;"-0,21"
1945;"-0,012"
1946;"-0,347"
1947;"1,265"
1948;"1,192"
1949;"1,214"
1950;"1,944"
1951;"1,808"
1952;"2,939"
1953;"2,122"
1954;"3,035"
1955;"2,934"
1956;"1,99"
1957;"3,528"
1958;"4,079"
1959;"3,668"
1960;"3,833"
1961;"3,668"
1962;"4,367"
1963;"3,399"
1964;"4,114"
1965;"4,705"
1966;"3,54"
1967;"4,46"
1968;"4,713"
1969;"4,959"
1970;"5,226"
1971;"5,146"
1972;"5,777"
1973;"6,918"
1974;"6,157"
1975;"6,5"
1976;"6,561"
1977;"6,632"
1978;"5,837"
1979;"7,181"
1980;"7,387"
1981;"7,94"
1982;"7,546"
1983;"7,419"
1984;"7,205"
1985;"6,865"
1986;"6,657"
1987;"7,304"
1988;"6,958"
1989;"7,572"
1990;"8,548"
1991;"9,052"
1992;"9,182"
1993;"8,755996216"
1994;"9,16778"
1995;"9,534668889"
1996;"9,766644865"
1997;"10,12110432"
1998;"9,932725946"
1999;"10,29105027"
2000;"10,5820773"
2001;"11,14761333"
2002;"11,45818541"
2003;"11,80618541"
2004;"12,00378"
2005;"12,48578"
2006;"12,63075222"
2007;"12,70775222"
2008;"12,96905027"
2009;"13,47764486"
2010;"13,62788811"
2011;"13,55705027"
2012;"14,63137459"
2013;"14,89800222"
2014;"15,23596919"
2017;"16,74183405"
2018;"17,12442865"
